module github.com/wormi4ok/evernote2md

go 1.16

require (
	github.com/cheggaaa/pb/v3 v3.0.4
	github.com/fatih/color v1.9.0 // indirect
	github.com/hashicorp/logutils v1.0.0
	github.com/integrii/flaggy v1.4.4
	github.com/mattn/godown v0.0.0-20200217152941-afc959f6a561
	github.com/sergi/go-diff v1.2.0
	golang.org/x/net v0.0.0-20200904194848-62affa334b73
)

replace github.com/mattn/godown => github.com/wormi4ok/godown v0.1.2
